<?xml version="1.0" encoding="UTF-8" standalone="no"?>
<svg xmlns="http://www.w3.org/2000/svg" xmlns:xlink="http://www.w3.org/1999/xlink" xmlns:sodipodi="http://sodipodi.sourceforge.net/DTD/sodipodi-0.dtd" xmlns:inkscape="http://www.inkscape.org/namespaces/inkscape"
    width="318mm" height="230mm" viewBox="0 0 318 230" version="1.1">

    <sodipodi:namedview
        inkscape:zoom="1"
        inkscape:cx="404.18445"
        inkscape:cy="379.57426"
        inkscape:document-units="mm"
        inkscape:current-layer="outside"
        showgrid="false"
        inkscape:window-maximized="0"
        units="mm" />

    <defs>
        <g id="internal-tall-brace-holes">
            <rect x="0" y="14" width="3" height="13" />
            <rect x="0" y="40" width="3" height="13" />
        </g>
    </defs>

    <!--
        v1.0.0

        Inkscape lists layers in reverse, so the last layer is on top. It likely follows SVG in that
        later items are stacked on top of earlier items.
    -->

    <!-- Skinny components box: 5x player tokens -->
    <g inkscape:groupmode="layer" inkscape:label="F - Skinny Component Box" id="tokens" style="display:none">
        <g style="fill: none; stroke: #000; stroke-width: .05">

            <!-- 42mm inside width; 48 outer -->

            <!-- Outer rect -->
            <rect x="0" y="0" width="216" height="165" rx="2" ry="2" />

            <!-- Instruction sheet 'F' indicator -->
            <path style="fill: #000; stroke: none" d="M 210.28226,127.97422 210.29107,126.81888 205.85489,126.81888 205.85489,132.99249 207.24837,132.99249 207.24837,130.65533 210.03531,130.65533 210.03531,129.49117 207.24837,129.49117 207.24837,127.97422 210.28226,127.97422 Z" />

            <!-- Box floor -->
            <g transform="translate(3,3)">
                <path d="M0,0 h30 v3 h30 v-3 h30 v3 h30 v-3 h30 v3 h30 v-3 h30
                              v10 h-3 v9 h3 v10 h-3 v9 h3 v10
                              h-30 v-3 h-30 v3 h-30 v-3 h-30 v3 h-30 v-3 h-30 v3 h-30
                              v-10 h3 v-9 h-3 v-10 h3 v-9 h-3 Z" />

                <!-- bins are 38.4mm wide -->
                <rect x="41.4" y="19" width="3" height="10" />
                <rect x="82.8" y="19" width="3" height="10" />
                <rect x="124.2" y="19" width="3" height="10" />
                <rect x="165.6" y="19" width="3" height="10" />
            </g>

            <!-- Box walls, long side -->
            <g id="components-side-skinny" transform="translate(3,54)">
                <path d="M0,0 h210
                              v10 h-3 v11 h3 v10
                              h-30 v3 h-30 v-3 h-30 v3 h-30 v-3 h-30 v3 h-30 v-3 h-30
                              v-10 h3 v-11 h-3 Z" />

                <rect x="41.4" y="10.5" width="3" height="10" />
                <rect x="82.8" y="10.5" width="3" height="10" />
                <rect x="124.2" y="10.5" width="3" height="10" />
                <rect x="165.6" y="10.5" width="3" height="10" />
            </g>
            <use xlink:href="#components-side-skinny" transform="translate(0,37)" />

            <!-- Box divider walls -->
            <g transform="translate(6,128)">
                <path id="divider-skinny" d="M0,0 h42
                                                  v10.5 h3 v10 h-3 v10.5
                                                  h-16 v3 h-10 v-3 h-16
                                                  v-10.5 h-3 v-10 h3 Z" />

                <use xlink:href="#divider-skinny" transform="translate(51,0)" />
                <use xlink:href="#divider-skinny" transform="translate(102,0)" />
                <use xlink:href="#divider-skinny" transform="translate(153,0)" />
            </g>
        </g>
    </g>

    <!-- Optional engravings for the bits and bobs box. -->
    <g inkscape:groupmode="layer" inkscape:label="E - Wide Components Box Engravings" id="engravings" style="display:none">
        <g style="fill: none; stroke: #000; stroke-width: .05">

            <g transform="translate(3,3)">

                <!-- Begin text: font size 30; #10 -->
                <circle cx="20.5" cy="33" r="7.5" style="stroke: none; fill: #000000" />
                <circle cx="20.5" cy="33" r="6.5" style="stroke: none; fill: #ffffff" />

                <!-- 9.498 x 7.297 -->
                <g transform="translate(15.751,29.3515)" style="stroke: none; fill: #000000">
                    <path d="M 2.749149,2.8617346e-4 2.749149,5.7312035 Q 2.749149,6.3771593 2.8059923,6.5580271 2.8628357,6.7337273 3.0437007,6.8474149 3.224566,6.9611025 3.6224691,6.9611025 L 3.7826639,6.9611025 3.7826639,7.1523052 0.09301633,7.1523052 0.09301633,6.9611025 0.27904906,6.9611025 Q 0.72862779,6.9611025 0.91982822,6.8577499 1.1110284,6.7543973 1.1782068,6.5735295 1.2453852,6.3926618 1.2453852,5.7312035 L 1.2453852,2.0983516 Q 1.2453852,1.6125935 1.198877,1.4937356 1.1523689,1.3697131 1.0231797,1.2870304 0.8991577,1.1991803 0.73379549,1.1991803 0.47024921,1.1991803 0.09301633,1.3645456 L -3.4641491e-8,1.1785103 2.5786191,2.8617346e-4 2.749149,2.8617346e-4 Z" />
                    <path d="M 9.4979999,3.6486434 Q 9.4979999,4.6976746 9.2034482,5.6071809 9.0277509,6.1652866 8.7280316,6.5218518 8.4334799,6.8784199 8.0562471,7.0902925 7.6790142,7.2970006 7.2346029,7.2970006 6.7281806,7.2970006 6.3199423,7.0386177 5.9117041,6.7802347 5.5964822,6.2996442 5.369109,5.9482436 5.1985788,5.3643005 4.9763733,4.5736521 4.9763733,3.731326 4.9763733,2.5892771 5.2967629,1.6332634 5.5603091,0.84261226 6.0977368,0.42403437 6.6351645,2.8617346e-4 7.2346029,2.8617346e-4 7.8443764,2.8617346e-4 8.3714689,0.41886688 8.9037292,0.83227728 9.1517726,1.5350783 9.4979999,2.501427 9.4979999,3.6486434 Z M 7.9063874,3.6383084 Q 7.9063874,1.7986259 7.8857171,1.4937356 7.8340413,0.7754349 7.6376737,0.52221948 7.5084843,0.35685419 7.2191,0.35685419 6.9968945,0.35685419 6.8677051,0.48087957 6.676505,0.6617445 6.6093265,1.1216651 6.5421481,1.5764182 6.5421481,4.3101017 6.5421481,5.7983836 6.6454996,6.3048117 6.7230131,6.6717147 6.8677051,6.7957372 7.0123971,6.9197626 7.2501057,6.9197626 7.5084843,6.9197626 7.6376737,6.7543973 7.8547118,6.4650095 7.8857171,5.8603935 L 7.9063874,3.6383084 Z" />
                </g>

                <!-- #5 -->
                <circle cx="58.5" cy="33" r="7.5" style="stroke: none; fill: #000000" />
                <circle cx="58.5" cy="33" r="6.5" style="stroke: none; fill: #ffffff" />

                <!-- 4.537 x 7.152 -->
                <g transform="translate(56.2315,29.3515)" style="stroke: none; fill: #000000">
                    <path d="M 1.2557373,-1.8e-5 4.5371906,-1.8e-5 4.0152587,1.333234 1.2557373,1.333234 0.99218747,2.030866 Q 2.7750243,2.098046 3.7362059,2.919701 4.5268553,3.596662 4.5268553,4.604352 4.5268553,5.250308 4.1599527,5.870425 3.79305,6.485374 3.1264241,6.821271 2.4597981,7.152 1.6639811,7.152 0.80615232,7.152 0.34623208,6.831607 0.02583821,6.60423 0.02583821,6.314842 0.02583821,6.092634 0.19120279,5.922101 0.36173501,5.751569 0.58394366,5.751569 0.78548174,5.751569 0.99218747,5.834251 1.1988932,5.916934 1.7001546,6.268333 2.0153808,6.485374 2.2427571,6.568057 2.402954,6.630068 2.6044921,6.630068 3.0282388,6.630068 3.3227945,6.32001 3.6225178,6.009951 3.6225178,5.575869 3.6225178,4.666364 2.7130126,4.097923 1.8035074,3.529483 0.41857909,3.529483 0.27905272,3.529483 0,3.53465 L 1.2557373,-1.8e-5 Z" />
                </g>

                <!-- #1 -->
                <circle cx="96.5" cy="33" r="7.5" style="stroke: none; fill: #000000" />
                <circle cx="96.5" cy="33" r="6.5" style="stroke: none; fill: #ffffff" />

                <!-- 3.783 x 7.152 -->
                <g transform="translate(94.6085,29.3515)" style="stroke: none; fill: #000000">
                    <path d="M 2.7491863,-1.982654e-5 2.7491863,5.7308975 Q 2.7491863,6.3768533 2.8060304,6.5577211 2.8628744,6.7334213 3.0437419,6.8471089 3.2246097,6.9607965 3.6225181,6.9607965 L 3.7827151,6.9607965 3.7827151,7.1519992 0.09301771,7.1519992 0.09301771,6.9607965 0.27905296,6.9607965 Q 0.72863775,6.9607965 0.91984077,6.8574439 1.1110435,6.7540913 1.1782228,6.5732235 1.2454022,6.3923558 1.2454022,5.7308975 L 1.2454022,2.0980456 Q 1.2454022,1.6122875 1.1988933,1.4934296 1.1523845,1.3694071 1.0231936,1.2867244 0.89916996,1.1988743 0.73380552,1.1988743 0.47025569,1.1988743 0.09301771,1.3642396 L 9.2996423e-8,1.1782043 2.5786541,-1.982654e-5 2.7491863,-1.982654e-5 Z" />
                </g>

                <!-- Gems; match inside circle -->
                <!-- FontAwesome: font-size 23.6 -->
                <g transform="translate(129.742,29.1345)">
                    <path style="stroke: none; fill: #000000" d="M 0.98525323,2.9735399 3.8796845,6.0631013 2.4858974,2.9735399 0.98525323,2.9735399 Z M 4.7577704,6.5602188 6.3792096,2.9735399 3.1363312,2.9735399 4.7577704,6.5602188 Z M 2.4998352,2.3788573 3.4476105,0.59480956 2.2303697,0.59480956 0.8923341,2.3788573 2.4998352,2.3788573 Z M 5.6358563,6.0631013 8.5302879,2.9735399 7.0296435,2.9735399 5.6358563,6.0631013 Z M 3.1734991,2.3788573 6.3420418,2.3788573 5.3942665,0.59480956 4.1212744,0.59480956 3.1734991,2.3788573 Z M 7.0157057,2.3788573 8.623207,2.3788573 7.2851712,0.59480956 6.0679303,0.59480956 7.0157057,2.3788573 Z M 7.6707858,0.12092204 9.4548332,2.4996521 Q 9.5198767,2.5832793 9.5152307,2.6947822 9.5105848,2.8016394 9.4362494,2.8806207 L 4.9761305,7.6380808 Q 4.8925033,7.7309999 4.7577704,7.7309999 4.6230378,7.7309999 4.5394106,7.6380808 L 0.0792914,2.8806207 Q 0.00495604,2.8016394 3.1009905e-4,2.6947822 -0.00433584,2.5832793 0.06070763,2.4996521 L 1.8447554,0.12092204 Q 1.9283823,1.269803e-4 2.081699,1.269803e-4 L 7.4338419,1.269803e-4 Q 7.5871585,1.269803e-4 7.6707858,0.12092204 Z" />
                </g>
            </g>
        </g>
    </g>

    <!-- 35mm x 60.5mm component sections; 67.5 outer width; 34mm tall -->

    <!-- Wide components box: coins, gems, dice, post office cubes, traveling salesmen... -->
    <g inkscape:groupmode="layer" inkscape:label="E - Wide Component Box" id="components" style="display:none">
        <g style="fill: none; stroke: #000; stroke-width: .05">

            <!-- Outer rect -->
            <rect x="0" y="0" width="216" height="220" rx="2" ry="2" />

            <!-- Instruction sheet 'E' indicator -->
            <path style="fill: #000; stroke: none" d="M 212.4269,146.38007 212.4269,145.22472 207.72614,145.22472 207.72614,151.39833 212.52392,151.39833 212.52392,150.24298 209.11961,150.24298 209.11961,148.87597 212.10058,148.87597 212.10058,147.72062 209.11961,147.72062 209.11961,146.38007 212.4269,146.38007 Z" />

            <!-- Box floor -->
            <g transform="translate(3,3)">
                <path d="M0,0 h30 v3 h30 v-3 h30 v3 h30 v-3 h30 v3 h30 v-3 h30
                              v15 h-3 v12 h3 v12 h-3 v12 h3 v15
                              h-30 v-3 h-30 v3 h-30 v-3 h-30 v3 h-30 v-3 h-30 v3 h-30
                              v-15 h3 v-12 h-3 v-12 h3 v-12 h-3 Z" />

                <rect x="38" y="25.5" width="3" height="15" />
                <rect x="76" y="25.5" width="3" height="15" />
                <rect x="114" y="25.5" width="3" height="15" />
                <rect x="152" y="25.5" width="3" height="15" />
            </g>

            <!-- Box walls, long side -->
            <g id="components-side" transform="translate(3,72)">
                <path d="M0,0 h210
                              v10 h-3 v11 h3 v10
                              h-30 v3 h-30 v-3 h-30 v3 h-30 v-3 h-30 v3 h-30 v-3 h-30
                              v-10 h3 v-11 h-3 Z" />

                <rect x="38" y="10.5" width="3" height="10" />
                <rect x="76" y="10.5" width="3" height="10" />
                <rect x="114" y="10.5" width="3" height="10" />
                <rect x="152" y="10.5" width="3" height="10" />
            </g>
            <use xlink:href="#components-side" transform="translate(0,37)" />

            <!-- Box divider walls -->
            <g transform="translate(6,146)">
                <path id="divider" d="M0,0 h60
                                           v10.5 h3 v10 h-3 v10.5
                                           h-22.5 v3 h-15 v-3 h-22.5
                                           v-10.5 h-3 v-10 h3 Z" />

                <use xlink:href="#divider" transform="translate(69,0)" />
                <use xlink:href="#divider" transform="translate(138,0)" />
                <use xlink:href="#divider" transform="translate(0,37)" />
            </g>

            <g transform="translate(75,183)">
                <path id="endcap" d="M0,0 h60
                                          v10.5 h3 v10 h-3 v10.5
                                          h-12 v3 h-12 v-3 h-12 v3 h-12 v-3 h-12
                                          v-10.5 h-3 v-10 h3 Z" />

                <use xlink:href="#endcap" transform="translate(69,0)" />
            </g>
        </g>
    </g>

    <!-- 65mm from box edge to end of angled cards, large stack -->
    <!-- cards with sleeves are 46mm x 73mm; add 1mm for width -->
    <!-- 3mm from top of angled slots? -->

    <!-- Divider parts for the components area and tiles area -->
    <g inkscape:groupmode="layer" inkscape:label="D - Cards Tall Divider and Angled Inserts" id="cards" style="display:none">
        <g style="fill: none; stroke: #000; stroke-width: .05">

            <!-- Outer rect -->
            <rect x="0" y="0" width="222" height="152.5" rx="2" ry="2" />

            <!-- Instruction sheet indicator 'D' -->
            <path style="fill: #000; stroke: none" d="M 212.99199,72.843028 212.99199,79.016639 215.55844,79.016639 C 217.50754,79.016639 218.85692,77.746639 218.85692,75.929834 218.85692,74.104209 217.52518,72.843028 215.61136,72.843028 L 212.99199,72.843028 Z M 214.38546,74.016014 215.5849,74.016014 C 216.64324,74.016014 217.43699,74.800945 217.43699,75.938653 217.43699,77.067542 216.67851,77.843653 215.64664,77.843653 L 214.38546,77.843653 214.38546,74.016014 Z" />

            <g transform="translate(6,3)">

                <g>
                    <!-- For the unadulterated version without card slots, look up at internal-tall-divider. -->
                    <use xlink:href="#card-end" />

                    <!-- Tile divider holes. Using the internal-tall-brace-holes here would interfere with the angled slots. -->
                    <g transform="translate(93,0)" id="internal-short-brace-holes">
                        <rect x="0" y="31" width="3" height="9" />
                        <rect x="0" y="49" width="3" height="9" />
                    </g>
                    <use transform="translate(21,0)" xlink:href="#internal-short-brace-holes" />
                </g>

                <!-- Angled card slot inserts. -->
                <g transform="translate(0,70)">

                    <!-- 78 - 1.5 = 76.5 for a little breathing room -->
                    <path id="card-slot-insert" d="M0,1 a 1 1 0 0 1 1 -1 h9 a 1 1 0 0 1 1 1 v1.5 a 12.5 12.5 0 0 0 25 0 v-1.5 a 1 1 0 0 1 1 -1 h9 a 1 1 0 0 1 1 1
                                                        v28.5 h-3 v46
                                                        a 1 1 0 0 1 -1 1 h-39 a 1 1 0 0 1 -1 -1
                                                        v-46 h-3 v-28.5" />
                    <use xlink:href="#card-slot-insert" transform="translate(50,0)" />
                    <use xlink:href="#card-slot-insert" transform="translate(100,0)" />
                    <use xlink:href="#card-slot-insert" transform="translate(150,0)" />
                </g>
            </g>
        </g>
    </g>

    <!-- 137mm x 92mm size of tiles -->

    <!-- Divider parts for the components area and tiles area -->
    <g inkscape:groupmode="layer" inkscape:label="C - Component Tall Divider and Tile Supports" id="tiles" style="display:none">
        <g style="fill: none; stroke: #000; stroke-width: .05">

            <!-- Outer rect -->
            <rect x="0" y="0" width="222" height="213" rx="2" ry="2" />

            <!-- Instruction sheet indicator 'C' -->
            <path style="fill: #000; stroke: none" d="M 216.04133,72.799173 C 214.1716,72.799173 212.75167,74.139733 212.75167,75.921253 212.75167,77.711603 214.14515,79.078613 215.98841,79.078613 216.88799,79.078613 217.83167,78.646463 218.48431,77.976183 L 217.6641,77.085423 C 217.22313,77.526393 216.61459,77.808613 216.05896,77.808613 215.00063,77.808613 214.18042,76.979593 214.18042,75.903613 214.18042,74.827643 215.00063,74.007433 216.05896,74.007433 216.63223,74.007433 217.24077,74.324933 217.6641,74.810003 L 218.47549,73.822233 C 217.86695,73.196043 216.93209,72.799173 216.04133,72.799173 Z" />

            <g transform="translate(6,3)">

                <!-- Internal divider for the components end of the box -->
                <g>
                    <use xlink:href="#box-end" />

                    <!-- holes for lower-level parts dividers -->
                    <use xlink:href="#parts-divider-left" />
                    <use xlink:href="#parts-divider-right" />

                    <!-- holes for tile dividers -->
                    <g transform="translate(93,0)" id="internal-middle-brace-holes">
                        <rect x="0" y="9" width="3" height="10" />
                        <rect x="0" y="28" width="3" height="11" />
                        <rect x="0" y="48" width="3" height="10" />
                    </g>
                    <use transform="translate(21,0)" xlink:href="#internal-middle-brace-holes" />
                </g>

                <!-- internal tile dividers -->
                <g transform="translate(0,70)" id="internal-tiles-divider">

                    <path d="M0,0 h42 a 2 2 0 0 1 2 2 v1.5 a 25 25 0 0 0 50 0 v-1.5 a 2 2 0 0 1 2 -2 h42
                                  v31 h3 v9 h-3 v9 h3 v9 h-3 v9
                                  h-42 a 2 2 0 0 1 -2 -2 v-1.5 a 25 25 0 0 0 -50 0 v1.5 a 2 2 0 0 1 -2 2 h-42
                                  v-9 h-3 v-10 h3 v-9 h-3 v-11 h3 v-9 h-3 v-10 h3 Z" />

                    <!--
                        Paths used to cut out the divider holes so people can lift up the tiles; use these if you
                        want the path above to have a straight top and bottom for some reason. Going this route
                        doesn't provide nice rounded corners where the cutouts meet the top of the dividers, but
                        if you don't want them at all then this isn't an issue.
                    -->
                    <g style="display: none">

                        <!-- Divider path without cutouts -->
                        <path d="M0,0 h138
                                      v9 h3 v10 h-3 v9 h3 v11 h-3 v9 h3 v10 h-3 v9
                                      h-138
                                      v-9 h-3 v-10 h3 v-9 h-3 v-11 h3 v-9 h-3 v-10 h3 Z" />

                        <!-- top circle chunk -->
                        <circle cx="69" cy="3.5" r="25" />
                        <rect x="44" y="-22.5" width="50" height="26" />
                        <rect x="43" y="-22.5" width="52" height="21.5" />
                        <!-- as path -->
                        <path d="M 44.000184,-1.0002603 44.000184,3.4998605 A 24.999999,24.999999 0 0 0 68.999999,28.500228 24.999999,24.999999 0 0 0 93.999815,3.4998605 L 93.999815,-1.0002603 44.000184,-1.0002603 Z" />

                        <!-- bottom circle chunk -->
                        <circle cx="69" cy="63.5" r="25" />
                        <rect x="44" y="63.5" width="50" height="26" />
                        <rect x="43" y="68" width="52" height="21.5" />
                        <!-- as path -->
                        <path d="M 68.999999,38.499824 A 24.999999,24.999999 0 0 0 44.000184,63.500194 L 44.000184,67.999765 93.999815,67.999765 93.999815,63.500194 A 24.999999,24.999999 0 0 0 68.999999,38.499824 Z" />
                    </g>
                </g>

                <use transform="translate(0,70)" xlink:href="#internal-tiles-divider" />

                <!-- Extra card slot insert. Why not? I have the space. -->
                <use xlink:href="#card-slot-insert" transform="translate(144,70)" />
            </g>
        </g>
    </g>

    <!-- Outside tall wall on the component side and other bracing parts / dividers -->
    <g inkscape:groupmode="layer" inkscape:label="B - Component-side Tall Wall and Component Dividers" id="inside" style="display:none">
        <g style="fill: none; stroke: #000; stroke-width: .05">

            <!-- Outer rect -->
            <rect x="0" y="0" width="249" height="145" rx="2" ry="2" />

            <!-- Instruction sheet 'B' indicator -->
            <path style="fill: #000; stroke: none" d="M 240.77706,63.76362 240.77706,69.93723 243.71394,69.93723 C 245.15151,69.93723 246.04227,69.28459 246.04227,68.22626 246.04227,67.41487 245.54838,66.81515 244.75463,66.66522 245.41609,66.49765 245.82179,65.9773 245.82179,65.30702 245.82179,64.35452 244.97512,63.76362 243.61692,63.76362 L 240.77706,63.76362 Z M 242.17054,64.90133 243.54637,64.90133 C 244.06672,64.90133 244.39304,65.13945 244.39304,65.56279 244.39304,65.99494 244.06672,66.2507 243.54637,66.2507 L 242.17054,66.2507 242.17054,64.90133 Z M 242.17054,67.32668 243.54637,67.32668 C 244.20783,67.32668 244.6047,67.60008 244.6047,68.04987 244.6047,68.52612 244.20783,68.79952 243.54637,68.79952 L 242.17054,68.79952 242.17054,67.32668 Z" />

            <g transform="translate(6,3)">

                <g>
                    <path id="box-end" d="M0,0 h210
                                               v14 h3 v13 h-3 v13 h3 v13 h-3 v14
                                               h-210
                                               v-14 h-3 v-13 h3 v-13 h-3 v-13 h3 Z" />

                    <!-- holes for the middle dividers for the lower-level parts bins -->
                    <rect id="parts-divider-left" x="43" y="45.5" width="3" height="10" />
                    <rect x="109.5" y="45.5" width="3" height="10" />
                    <rect id="parts-divider-right" x="176" y="45.5" width="3" height="10" />
                </g>

                <!-- left side parts box lower-level divider/bracer -->
                <g transform="translate(0,70)">
                    <path id="long-vert-bracer" d="M0,0 h114
                                                        v11.5 h3 v10 h-3 v11.5
                                                        h-114
                                                        v-11.5 h-3 v-10 h3 Z" />

                    <rect x="57" y="11.5" width="3" height="10" />
                </g>

                <!-- middle short one -->
                <path transform="translate(0,106)" d="M0,0 h57
                                                           v11.5 h3 v10 h-3 v11.5
                                                           h-57
                                                           v-11.5 h-3 v-10 h3 Z" />

                <!-- right side one -->
                <path transform="translate(123,70)" d="M0,0 h57 v16.5 h3 v-16.5 h54
                                                            v11.5 h3 v10 h-3 v11.5
                                                            h-114
                                                            v-11.5 h-3 v-10 h3 Z" />

                <!-- horizontal center divider -->
                <g transform="translate(69,106)">
                    <path d="M0,0 h164
                                  v11.5 h3 v10 h-3 v11.5
                                  h-31 v-16.5 h-3 v16.5 h-130
                                  v-11.5 h-3 v-10 h3 Z" />

                    <rect x="63.5" y="11.5" width="3" height="10" />
                </g>
            </g>
        </g>
    </g>

    <!-- Remainder of the skinny box, which fits on the outside walls sheet -->
    <g inkscape:groupmode="layer" inkscape:label="A - Skinny Component Box End Caps" id="token-ends" style="display:none">
        <g style="fill: none; stroke: #000; stroke-width: .05">

            <!-- Box end caps -->
            <g transform="translate(225,143)">
                <path id="endcap-skinny" d="M0,0 h42
                                                 v10 h3 v11 h-3 v10
                                                 h-7 v3 h-9 v-3 h-10 v3 h-9 v-3 h-7
                                                 v-10 h-3 v-11 h3 Z" />

                <use xlink:href="#endcap-skinny" transform="translate(89,16) rotate(90)" />
            </g>
        </g>
    </g>

    <!-- 311mm x 216mm internal dimensions; depth of 67mm (68mm) -->

    <!-- The outer walls of the box -->
    <g inkscape:groupmode="layer" inkscape:label="A - Outer Sides" id="outside"><!-- style="display:none">-->
        <g style="fill: none; stroke: #000; stroke-width: .05">

            <!-- Outer rect -->
            <rect x="0" y="0" width="317" height="213" rx="2" ry="2" />

            <!-- Instruction sheet 'A' indicator -->
            <path style="fill: #000; stroke: none" d="M 310.58198,150.19725 311.06705,151.3967 312.55753,151.3967 309.92052,145.22309 308.48295,145.22309 305.80184,151.3967 307.23941,151.3967 307.72448,150.19725 310.58198,150.19725 Z M 310.13218,149.07718 308.18309,149.07718 309.16205,146.6783 310.13218,149.07718 Z" />

            <!-- removable parts box 1: 34mm tall; remainder: 33mm -->
            <g transform="translate(3,3)">

                <g>
                    <g id="side">
                        <path d="M0,0 h311
                                      v14 h-3 v13 h3 v13 h-3 v13 h3 v14
                                      h-311
                                      v-14 h3 v-13 h-3 v-13 h3 v-13 h-3 Z" />

                        <!-- holes for the wall adjacent the end of lower-level parts bins -->
                        <use transform="translate(117,0)" xlink:href="#internal-tall-brace-holes" />

                        <!-- holes for tall divider at the end to separate off the cards -->
                        <use transform="translate(258,0)" xlink:href="#internal-tall-brace-holes" />
                    </g>

                    <!-- hole for the middle divider for the lower-level parts bins -->
                    <rect x="60" y="45.5" width="3" height="10" />
                </g>
                <use xlink:href="#side" transform="translate(0,70)" />

                <!-- 113; 44mm +6 for small remainder tray; 42 + 6mm = 117 -->
                <!-- edge - card widths - tile height - divider width; 311 - 3 - 47 - 3 - 138 - 3 mm -->

                <g transform="translate(3,140)">

                    <!--
                        Yes kids, trigonometry is useful.

                        Cards with sleeves are 46mm x 73mm; +1mm for spacing; +5mm height = 78mm
                        59.2 deg between vertical line and angle of card slots = arcsin(67/78)
                        30mm = length of each slot along the angled line
                        10mm = The space between each slot + the width of a slot

                        Full (relative) numbers:
                         Bottom X of first angled line:  15.361285946117146204759185163121  = cos(59.2 deg)*30
                         Bottom Y of first angled line:  25.768796907919932077303770707593  = sin(59.2 deg)*30
                           Top X of second angled line:   2.5768796907919932077303770707593 = sin(59.2 deg)*3
                           Top Y of second angled line:  -1.5361285946117146204759185163121 = cos(59.2 deg)*3
                            Top X of third angled line: -12.657210599519456954522109527806  = tan(30.8 deg)*21.232668313308217456827852191281

                        If you go full angle all the way to the top, instead of stopping to go straight up:
                            Top X of third angled line: -14.445569520699349424732566243859  = tan(30.8 deg)*24.232668313308217456827852191281

                        24.232668313308217456827852191281 = bottom y of first angled line + top y of second angled line
                        (Used to get the length the third angled line needs to travel along the x axis.)
                    -->

                    <!-- See #box-end for the unadulterated version without angled card slots. -->
                    <path id="card-end" d="M0,0 l1.5,0
                                                    l15.36128594611,25.76879690791 l2.57687969079,-1.53612859461 l-12.65721059951,-21.2326683133 v-2 a 1 1 0 0 1 1 -1 h3.71904496261
                                                    l15.36128594611,25.76879690791 l2.57687969079,-1.53612859461 l-12.65721059951,-21.2326683133 v-2 a 1 1 0 0 1 1 -1 h3.71904496261
                                                    l15.36128594611,25.76879690791 l2.57687969079,-1.53612859461 l-12.65721059951,-21.2326683133 v-2 a 1 1 0 0 1 1 -1 h3.71904496261
                                                    l15.36128594611,25.76879690791 l2.57687969079,-1.53612859461 l-12.65721059951,-21.2326683133 v-2 a 1 1 0 0 1 1 -1 h3.71904496261
                                                    l15.36128594611,25.76879690791 l2.57687969079,-1.53612859461 l-12.65721059951,-21.2326683133 v-2 a 1 1 0 0 1 1 -1 h3.71904496261
                                                    l15.36128594611,25.76879690791 l2.57687969079,-1.53612859461 l-12.65721059951,-21.2326683133 v-2 a 1 1 0 0 1 1 -1 h3.71904496261
                                                    l15.36128594611,25.76879690791 l2.57687969079,-1.53612859461 l-12.65721059951,-21.2326683133 v-2 a 1 1 0 0 1 1 -1 h3.71904496261
                                                    l15.36128594611,25.76879690791 l2.57687969079,-1.53612859461 l-12.65721059951,-21.2326683133 v-2 a 1 1 0 0 1 1 -1 h3.71904496261
                                                    l15.36128594611,25.76879690791 l2.57687969079,-1.53612859461 l-12.65721059951,-21.2326683133 v-2 a 1 1 0 0 1 1 -1 h3.71904496261
                                                    l15.36128594611,25.76879690791 l2.57687969079,-1.53612859461 l-12.65721059951,-21.2326683133 v-2 a 1 1 0 0 1 1 -1 h3.71904496261
                                                    l15.36128594611,25.76879690791 l2.57687969079,-1.53612859461 l-12.65721059951,-21.2326683133 v-2 a 1 1 0 0 1 1 -1 h3.71904496261
                                                    l15.36128594611,25.76879690791 l2.57687969079,-1.53612859461 l-12.65721059951,-21.2326683133 v-2 a 1 1 0 0 1 1 -1 h3.71904496261
                                                    l15.36128594611,25.76879690791 l2.57687969079,-1.53612859461 l-12.65721059951,-21.2326683133 v-2 a 1 1 0 0 1 1 -1 h3.71904496261
                                                    l15.36128594611,25.76879690791 l2.57687969079,-1.53612859461 l-12.65721059951,-21.2326683133 v-2 a 1 1 0 0 1 1 -1 h3.71904496261
                                                    l15.36128594611,25.76879690791 l2.57687969079,-1.53612859461 l-12.65721059951,-21.2326683133 v-2 a 1 1 0 0 1 1 -1 h3.71904496261
                                                    l15.36128594611,25.76879690791 l2.57687969079,-1.53612859461 l-12.65721059951,-21.2326683133 v-2 a 1 1 0 0 1 1 -1 h3.71904496261
                                                    h48.5
                                                v14 h3 v13 h-3 v13 h3 v13 h-3 v14
                                                h-210
                                                v-14 h-3 v-13 h3 v-13 h-3 v-13 h3 Z" />
                </g>
            </g>
        </g>
    </g>
</svg>
