<?xml version="1.0" encoding="UTF-8" standalone="no"?>
<svg xmlns="http://www.w3.org/2000/svg" xmlns:xlink="http://www.w3.org/1999/xlink" xmlns:sodipodi="http://sodipodi.sourceforge.net/DTD/sodipodi-0.dtd" xmlns:inkscape="http://www.inkscape.org/namespaces/inkscape"
    width="609.6mm" height="304.8mm" viewBox="0 0 609.6 304.8" version="1.1">

    <sodipodi:namedview
        inkscape:zoom="1"
        inkscape:cx="404.18445"
        inkscape:cy="379.57426"
        inkscape:document-units="mm"
        inkscape:current-layer="outside"
        showgrid="false"
        inkscape:window-maximized="0"
        units="mm" />

    <!--
        v1.0.0

        This design is intended to cards from three popular trading card games: Magic, Yu-Gi-Oh!, and
        Pokemon. It also has room for card sleeves of appropriate sizes. There's no reason other than
        to be fancy to have a laser cut deck box for your trading card collections. :)

        The maximum size of a sleeve (or unsleeved card) that can fit in this box is 70mm x 93mm. The
        nearest standard deck sleeve seems to be 66mm x 91mm. It's quite easy to extend the design to
        handle card sleeves up to 70mm x 120mm. Just ask or do it yourself. Didn't want trading cards
        to bounce around too much with all that extra space.

        Inkscape lists layers in reverse, so the last layer is on top. It likely follows SVG in that
        later items are stacked on top of earlier items.
    -->

    <!-- Lid to box -->
    <g inkscape:groupmode="layer" inkscape:label="Lid" id="lid">
        <g style="fill: none; stroke: #000; stroke-width: .05">

            <!-- Lid top -->
            <path transform="translate(6.5,6.5)" d="M0,0 h15.68 v-3.5 h15.68 v3.5 h15.68 v-3.5 h15.68 v3.5 h15.68
                                                         v10.4 h3.5 v10.4 h-3.5 v10.4 h3.5 v10.4 h-3.5 v10.4
                                                         h-15.68 v3.5 h-15.68 v-3.5 h-15.68 v3.5 h-15.68 v-3.5 h-15.68
                                                         v-10.4 h-3.5 v-10.4 h3.5 v-10.4 h-3.5 v-10.4 h3.5 Z" />

            <!-- Lid walls, long side -->
            <g id="lid-side-long" transform="translate(3,65)">
                <path d="M0,1 a 1 1 0 0 1 1 -1 h83.4 a 1 1 0 0 1 1 1
                               v19.8 h-3.5 v20.8 h3.5 v20.8 h-3.5 v20.8 h3.5 v19.8
                               a 1 1 0 0 1 -1 1 h-25.1 a 1 1 0 0 1 -1 -1 v-18 a 1 1 0 0 0 -1 -1 h-29.2 a 1 1 0 0 0 -1 1 v18 a 1 1 0 0 1 -1 1 h-25.1 a 1 1 0 0 1 -1 -1
                               v-19.8 h3.5 v-20.8 h-3.5 v-20.8 h3.5 v-20.8 h-3.5 Z" />

                 <!-- Holes for the lid itself -->
                <rect x="18.68" y="3" width="15.68" height="3.2" />
                <rect x="50.04" y="3" width="15.68" height="3.2" />
            </g>
            <use xlink:href="#lid-side-long" transform="translate(88.4,0)" />

            <!-- Lid walls, short side -->
            <g id="lid-side-short" transform="translate(182.2,3)">
                <path  d="M0,0 h52
                               v20.51 h3.5 v21.38 h-3.5 v20.22 h3.5 v21.38 h-3.5 v20.51
                               h-52
                               v-20.51 h-3.5 v-21.38 h3.5 v-20.22 h-3.5 v-21.38 h3.5 Z" />

                 <!-- Holes for the lid itself -->
                <rect x="10.4" y="3" width="10.4" height="3.2" />
                <rect x="31.2" y="3" width="10.4" height="3.2" />
            </g>
            <use xlink:href="#lid-side-short" transform="translate(0,107)" />
        </g>
    </g>
    <g inkscape:groupmode="layer" inkscape:label="Base" id="base">
        <g style="fill: none; stroke: #000; stroke-width: .05">

            <!-- Box floor -->
            <g transform="translate(95.4,7)">
                <path d="M0,0 h14.28 v-3.5 h14.28 v3.5 h14.28 v-3.5 h14.28 v3.5 h14.28
                              v9 h3.5 v9 h-3.5 v9 h3.5 v9 h-3.5 v9
                              h-14.28 v3.5 h-14.28 v-3.5 h-14.28 v3.5 h-14.28 v-3.5 h-14.28
                              v-9 h-3.5 v-9 h3.5 v-9 h-3.5 v-9 h3.5 Z" />
            </g>

            <!-- Box walls, long side-->
            <g id="box-side-long" transform="translate(3,172)">
                <path  d="M0,1 a 1 1 0 0 1 1 -1 h23.6 a 1 1 0 0 1 1 1 v14 a 1 1 0 0 0 1 1 h24.2 a 1 1 0 0 0 1 -1 v-14 a 1 1 0 0 1 1 -1 h23.6 a 1 1 0 0 1 1 1
                               v19 h-3.5 v20 h3.5 v20 h-3.5 v20 h3.5 v19
                               a 1 1 0 0 1 -1 1 h-75.4 a 1 1 0 0 1 -1 -1
                               v-19 h3.5 v-20 h-3.5 v-20 h3.5 v-20 h-3.5 Z" />

               <!-- Holes for the floor itself -->
               <rect x="17.28" y="93.72" width="14.28" height="3.2" />
               <rect x="45.84" y="93.72" width="14.28" height="3.2" />
            </g>
            <use xlink:href="#box-side-long" transform="translate(80.4,0)" />

            <!-- Box walls, short side -->
            <g id="box-side-short" transform="translate(244.2,3)">
                <path  d="M0,0 h45
                               v19.71 h3.5 v20.58 h-3.5 v19.71 h3.5 v20.58 h-3.5 v19.71
                               h-45
                               v-19.71 h-3.5 v-20.58 h3.5 v-19.71 h-3.5 v-20.58 h3.5 Z" />

               <!-- Holes for the floor itself -->
               <rect x="9" y="93.72" width="9" height="3" />
               <rect x="27" y="93.72" width="9" height="3" />
            </g>
            <use xlink:href="#box-side-short" transform="translate(0,103)" />
        </g>
    </g>
</svg>
